CUT 59988199552000 8400000
CUT 59988285952000 8400000
EET 60694522800000 7200000
MSK 60888146400000 10800000
CEST 61240914000000 7200000
CET 61278426000000 3600000
CEST 61291126800000 7200000
CET 61307456400000 3600000
MSK 61309263600000 10800000
MSD 62490603600000 14400000
MSK 62506411200000 10800000
MSD 62522139600000 14400000
MSK 62537947200000 10800000
MSD 62553675600000 14400000
MSK 62569483200000 10800000
MSD 62585298000000 14400000
MSK 62601030000000 10800000
MSD 62616754800000 14400000
MSK 62632479600000 10800000
MSD 62648204400000 14400000
MSK 62663929200000 10800000
MSD 62679654000000 14400000
MSK 62695378800000 10800000
MSD 62711103600000 14400000
MSK 62726828400000 10800000
MSD 62742553200000 14400000
MSK 62758278000000 10800000
MSD 62774002800000 14400000
MSK 62790332400000 10800000
EEST 62806057200000 10800000
EET 62821774800000 7200000
EEST 62837503200000 10800000
EET 62853224400000 7200000
EEST 62868952800000 10800000
EET 62884674000000 7200000
EEST 62900402400000 10800000
EET 62916123600000 7200000
EEST 62931862800000 10800000
EET 62947587600000 7200000
EEST 62963917200000 10800000
EET 62982061200000 7200000
EEST 62995366800000 10800000
EET 63013510800000 7200000
EEST 63026816400000 10800000
EET 63044960400000 7200000
EEST 63058266000000 10800000
EET 63077014800000 7200000
EEST 63089715600000 10800000
EET 63108464400000 7200000
EEST 63121165200000 10800000
EET 63139914000000 7200000
EEST 63153219600000 10800000
EET 63171363600000 7200000
EEST 63184669200000 10800000
EET 63202813200000 7200000
EEST 63216118800000 10800000
EET 63234867600000 7200000
EEST 63247568400000 10800000
EET 63266317200000 7200000
EEST 63279018000000 10800000
EET 63297766800000 7200000
EEST 63310467600000 10800000
EET 63329216400000 7200000
EEST 63342522000000 10800000
EET 63360666000000 7200000
EEST 63373971600000 10800000
EET 63392115600000 7200000
EEST 63405421200000 10800000
EET 63424170000000 7200000
EEST 63436870800000 10800000
EET 63455619600000 7200000
EEST 63468320400000 10800000
EET 63487069200000 7200000
EEST 63500374800000 10800000
EET 63518518800000 7200000
EEST 63531824400000 10800000
EET 63549968400000 7200000
EEST 63563274000000 10800000
EET 63581418000000 7200000
EEST 63594723600000 10800000
EET 63613472400000 7200000
EEST 63626173200000 10800000
EET 63644922000000 7200000
EEST 63657622800000 10800000
EET 63676371600000 7200000
EEST 63689677200000 10800000
EET 63707821200000 7200000
EEST 63721126800000 10800000
EET 63739270800000 7200000
EEST 63752576400000 10800000
EET 63771325200000 7200000
EEST 63784026000000 10800000
EET 63802774800000 7200000
EEST 63815475600000 10800000
EET 63834224400000 7200000
EEST 63847530000000 10800000
EET 63865674000000 7200000
EEST 63878979600000 10800000
EET 63897123600000 7200000
EEST 63910429200000 10800000
EET 63928573200000 7200000
EEST 63941878800000 10800000
EET 63960627600000 7200000
EEST 63973328400000 10800000
EET 63992077200000 7200000
EEST 64004778000000 10800000
EET 64023526800000 7200000
EEST 64036832400000 10800000
EET 64054976400000 7200000
EEST 64068282000000 10800000
EET 64086426000000 7200000
EEST 64099731600000 10800000
EET 64118480400000 7200000
EEST 64131181200000 10800000
EET 64149930000000 7200000
EEST 64162630800000 10800000
EET 64181379600000 7200000
EEST 64194080400000 10800000
EET 64212829200000 7200000
EEST 64226134800000 10800000
EET 64244278800000 7200000
EEST 64257584400000 10800000
EET 64275728400000 7200000
EET 64283080447000 7200000
EET 64283166847000 7200000
